Residual analysis in Econometric models :: Glass Frog — Hello Friend NG Theme
…
112
6.67%
2.049
2.8%

120
7.14%
2.079
3%

Now that we understand this property of natural log, it’s possible to validate this property on the data set that will be used on the regression model proposed, for the suggarcane price and suggarcane area planted. The delta_area and delta_value fields presents the percentual variation of one period to the preceding. At delta_log_value and delta_log_area fields is calculated the difference between one period with the preceding and the fields log_area_precision and log_value_precision calculate the difference between delta_area with delta_log_area and delta_value with delta_log_value. The lower these two values, stronger is the property of the natural log transformation explained before. The following table will show the results:

dados_2

## # A tibble: 34 x 11
##    periodo  area valor log_area log_valor delta_area delta_log_area delta_valor
##      <dbl> <dbl> <dbl>    <dbl>     <dbl>      <dbl>          <dbl>       <dbl>
##  1       1    29  7.53     3.37      2.02      NA             NA          NA   
##  2       2    71 11.5      4.26      2.44       1.45           0.9         0.53
##  3       3    42 10.1      3.74      2.31      -0.41          -0.53       -0.12
##  4       4    90 11.0      4.50      2.40       1.14           0.76        0.09
##  5       5    72 11.0      4.28      2.39      -0.2           -0.22       -0.01
##  6       6    57 13.2      4.04      2.58      -0.21          -0.23        0.21
##  7       7    44 14.2      3.78      2.65      -0.23          -0.26        0.07
##  8       8    61 21.0      4.11      3.04       0.39           0.33        0.48
##  9       9    60 18.8      4.09      2.94      -0.02          -0.02       -0.1 
## 10      10    70 19.6      4.25      2.98       0.17           0.15        0.04
## # ... with 24 more rows, and 3 more variables: delta_log_valor <dbl>,
## #   log_area_precicion <dbl>, log_valor_precision <dbl>
…
