nobel_prize_analysis
…
## # A tibble: 911 x 5
## # Groups:   full_name [904]
##    prize_year category  full_name                   prizes distinct_prizes
##         <dbl> <chr>     <chr>                        <int>           <int>
##  1       1917 Peace     Comit international de la~      3               1
##  2       1944 Peace     Comit international de la~      3               1
##  3       1963 Peace     Comit international de la~      3               1
##  4       1958 Chemistry Frederick Sanger                 2               1
##  5       1980 Chemistry Frederick Sanger                 2               1
##  6       1956 Physics   John Bardeen                     2               1
##  7       1972 Physics   John Bardeen                     2               1
##  8       1954 Chemistry Linus Carl Pauling               2               2
##  9       1962 Peace     Linus Carl Pauling               2               2
## 10       1903 Physics   Marie Curie, ne Sklodowska      2               2
## # ... with 901 more rows
…
